video-output/clk_div.vcd
$date
  Fri Nov 25 01:49:58 2016
$end
$version
  GHDL v0
$end
$timescale
  1 fs
$end
$var reg 1 ! clk $end
$var reg 1 " reset $end
$var reg 1 # pixel $end
$var reg 1 $ blck $end
$scope module l1 $end
$var reg 1 % clk $end
$var reg 1 & reset $end
$var reg 1 ' pixel $end
$var reg 1 ( blck $end
$var reg 3 ) cnt_pixel[2:0] $end
$var reg 7 * cnt_blck[6:0] $end
$var reg 1 + blck_i $end
$upscope $end
$enddefinitions $end
#0
0!
1"
1#
1$
0%
1&
1'
1(
b000 )
b0000000 *
1+
#5000000
1!
1%
#10000000
0!
0%
#15000000
1!
1%
#20000000
0!
0%
#25000000
1!
1%
#30000000
0!
0%
#35000000
1!
1%
#40000000
0!
0%
#45000000
1!
1%
#50000000
0!
0%
#55000000
1!
1%
#60000000
0!
0%
#65000000
1!
1%
#70000000
0!
0%
#75000000
1!
1%
#80000000
0!
0%
#85000000
1!
1%
#90000000
0!
0%
#95000000
1!
1%
#100000000
0!
0"
0%
0&
#105000000
1!
1%
b001 )
b0000001 *
#110000000
0!
0%
#115000000
1!
1%
b010 )
b0000010 *
#120000000
0!
0%
#125000000
1!
1%
b011 )
b0000011 *
#130000000
0!
0%
#135000000
1!
0#
1%
0'
b100 )
b0000100 *
#140000000
0!
0%
#145000000
1!
1%
b101 )
b0000101 *
#150000000
0!
0%
#155000000
1!
1%
b110 )
b0000110 *
#160000000
0!
0%
#165000000
1!
1#
1%
1'
b000 )
b0000111 *
#170000000
0!
0%
#175000000
1!
1%
b001 )
b0001000 *
#180000000
0!
0%
#185000000
1!
1%
b010 )
b0001001 *
#190000000
0!
0%
#195000000
1!
1%
b011 )
b0001010 *
#200000000
0!
0%
#205000000
1!
0#
1%
0'
b100 )
b0001011 *
#210000000
0!
0%
#215000000
1!
1%
b101 )
b0001100 *
#220000000
0!
0%
#225000000
1!
1%
b110 )
b0001101 *
#230000000
0!
0%
#235000000
1!
1#
1%
1'
b000 )
b0001110 *
#240000000
0!
0%
#245000000
1!
1%
b001 )
b0001111 *
#250000000
0!
0%
#255000000
1!
1%
b010 )
b0010000 *
#260000000
0!
0%
#265000000
1!
1%
b011 )
b0010001 *
#270000000
0!
0%
#275000000
1!
0#
1%
0'
b100 )
b0010010 *
#280000000
0!
0%
#285000000
1!
1%
b101 )
b0010011 *
#290000000
0!
0%
#295000000
1!
1%
b110 )
b0010100 *
#300000000
0!
0%
#305000000
1!
1#
1%
1'
b000 )
b0010101 *
#310000000
0!
0%
#315000000
1!
1%
b001 )
b0010110 *
#320000000
0!
0%
#325000000
1!
1%
b010 )
b0010111 *
#330000000
0!
0%
#335000000
1!
1%
b011 )
b0011000 *
#340000000
0!
0%
#345000000
1!
0#
1%
0'
b100 )
b0011001 *
#350000000
0!
0%
#355000000
1!
1%
b101 )
b0011010 *
#360000000
0!
0%
#365000000
1!
1%
b110 )
b0011011 *
#370000000
0!
0%
#375000000
1!
1#
1%
1'
b000 )
b0011100 *
#380000000
0!
0%
#385000000
1!
1%
b001 )
b0011101 *
#390000000
0!
0%
#395000000
1!
1%
b010 )
b0011110 *
#400000000
0!
0%
#405000000
1!
1%
b011 )
b0011111 *
#410000000
0!
0%
#415000000
1!
0#
1%
0'
b100 )
b0100000 *
#420000000
0!
0%
#425000000
1!
1%
b101 )
b0100001 *
#430000000
0!
0%
#435000000
1!
1%
b110 )
b0100010 *
#440000000
0!
0%
#445000000
1!
1#
1%
1'
b000 )
b0100011 *
#450000000
0!
0%
#455000000
1!
1%
b001 )
b0100100 *
#460000000
0!
0%
#465000000
1!
1%
b010 )
b0100101 *
#470000000
0!
0%
#475000000
1!
1%
b011 )
b0100110 *
#480000000
0!
0%
#485000000
1!
0#
1%
0'
b100 )
b0100111 *
#490000000
0!
0%
#495000000
1!
1%
b101 )
b0101000 *
#500000000
0!
0%
#505000000
1!
1%
b110 )
b0101001 *
#510000000
0!
0%
#515000000
1!
1#
1%
1'
b000 )
b0101010 *
#520000000
0!
0%
#525000000
1!
1%
b001 )
b0101011 *
#530000000
0!
0%
#535000000
1!
1%
b010 )
b0101100 *
#540000000
0!
0%
#545000000
1!
1%
b011 )
b0101101 *
#550000000
0!
0%
#555000000
1!
0#
1%
0'
b100 )
b0101110 *
#560000000
0!
0%
#565000000
1!
1%
b101 )
b0101111 *
#570000000
0!
0%
#575000000
1!
1%
b110 )
b0110000 *
#580000000
0!
0%
#585000000
1!
1#
1%
1'
b000 )
b0110001 *
#590000000
0!
0%
#595000000
1!
1%
b001 )
b0110010 *
#600000000
0!
0%
#605000000
1!
1%
b010 )
b0110011 *
#610000000
0!
0%
#615000000
1!
1%
b011 )
b0110100 *
#620000000
0!
0%
#625000000
1!
0#
1%
0'
b100 )
b0110101 *
#630000000
0!
0%
#635000000
1!
1%
b101 )
b0110110 *
#640000000
0!
0%
#645000000
1!
1%
b110 )
b0110111 *
#650000000
0!
0%
#655000000
1!
1#
1%
1'
b000 )
b0111000 *
#660000000
0!
0%
#665000000
1!
1%
b001 )
b0111001 *
#670000000
0!
0%
#675000000
1!
1%
b010 )
b0111010 *
#680000000
0!
0%
#685000000
1!
1%
b011 )
b0111011 *
#690000000
0!
0%
#695000000
1!
0#
1%
0'
b100 )
b0111100 *
#700000000
0!
0%
#705000000
1!
1%
b101 )
b0111101 *
#710000000
0!
0%
#715000000
1!
1%
b110 )
b0111110 *
#720000000
0!
0%
#725000000
1!
1#
1%
1'
b000 )
b0111111 *
#730000000
0!
0%
#735000000
1!
1%
b001 )
b1000000 *
#740000000
0!
0%
#745000000
1!
1%
b010 )
b1000001 *
#750000000
0!
0%
#755000000
1!
1%
b011 )
b1000010 *
#760000000
0!
0%
#765000000
1!
0#
1%
0'
b100 )
b1000011 *
#770000000
0!
0%
#775000000
1!
1%
b101 )
b1000100 *
#780000000
0!
0%
#785000000
1!
1%
b110 )
b1000101 *
#790000000
0!
0%
#795000000
1!
1#
1%
1'
b000 )
b1000110 *
#800000000
0!
0%
#805000000
1!
1%
b001 )
b1000111 *
#810000000
0!
0%
#815000000
1!
1%
b010 )
b1001000 *
#820000000
0!
0%
#825000000
1!
1%
b011 )
b1001001 *
#830000000
0!
0%
#835000000
1!
0#
1%
0'
b100 )
b1001010 *
#840000000
0!
0%
#845000000
1!
1%
b101 )
b1001011 *
#850000000
0!
0%
#855000000
1!
1%
b110 )
b1001100 *
#860000000
0!
0%
#865000000
1!
1#
1%
1'
b000 )
b1001101 *
#870000000
0!
0%
#875000000
1!
1%
b001 )
b1001110 *
#880000000
0!
0%
#885000000
1!
1%
b010 )
b1001111 *
#890000000
0!
0%
#895000000
1!
1%
b011 )
b1010000 *
#900000000
0!
0%
#905000000
1!
0#
1%
0'
b100 )
b1010001 *
#910000000
0!
0%
#915000000
1!
1%
b101 )
b1010010 *
#920000000
0!
0%
#925000000
1!
1%
b110 )
b1010011 *
#930000000
0!
0%
#935000000
1!
1#
1%
1'
b000 )
b1010100 *
#940000000
0!
0%
#945000000
1!
1%
b001 )
b1010101 *
#950000000
0!
0%
#955000000
1!
1%
b010 )
b1010110 *
#960000000
0!
0%
#965000000
1!
1%
b011 )
b1010111 *
#970000000
0!
0%
#975000000
1!
0#
1%
0'
b100 )
b1011000 *
#980000000
0!
0%
#985000000
1!
1%
b101 )
b1011001 *
#990000000
0!
0%
#995000000
1!
1%
b110 )
b1011010 *
#1000000000
0!
0%
#1005000000
1!
1#
1%
1'
b000 )
b1011011 *
#1010000000
0!
0%
#1015000000
1!
1%
b001 )
b1011100 *
#1020000000
0!
0%
#1025000000
1!
1%
b010 )
b1011101 *
#1030000000
0!
0%
#1035000000
1!
1%
b011 )
b1011110 *
#1040000000
0!
0%
#1045000000
1!
0#
1%
0'
b100 )
b1011111 *
#1050000000
0!
0%
#1055000000
1!
1%
b101 )
b1100000 *
#1060000000
0!
0%
#1065000000
1!
1%
b110 )
b1100001 *
#1070000000
0!
0%
#1075000000
1!
1#
1%
1'
b000 )
b1100010 *
#1080000000
0!
0%
#1085000000
1!
1%
b001 )
b1100011 *
#1090000000
0!
0%
#1095000000
1!
1%
b010 )
b1100100 *
#1100000000
0!
0%
#1105000000
1!
1%
b011 )
b1100101 *
#1110000000
0!
0%
#1115000000
1!
0#
1%
0'
b100 )
b1100110 *
#1120000000
0!
0%
#1125000000
1!
1%
b101 )
b1100111 *
#1130000000
0!
0%
#1135000000
1!
1%
b110 )
b1101000 *
#1140000000
0!
0%
#1145000000
1!
1#
0$
1%
1'
0(
b000 )
b0000000 *
0+
#1150000000
0!
0%
#1155000000
1!
1%
b001 )
b0000001 *
#1160000000
0!
0%
#1165000000
1!
1%
b010 )
b0000010 *
#1170000000
0!
0%
#1175000000
1!
1%
b011 )
b0000011 *
#1180000000
0!
0%
#1185000000
1!
0#
1%
0'
b100 )
b0000100 *
#1190000000
0!
0%
#1195000000
1!
1%
b101 )
b0000101 *
#1200000000
0!
0%
#1205000000
1!
1%
b110 )
b0000110 *
#1210000000
0!
0%
#1215000000
1!
1#
1%
1'
b000 )
b0000111 *
#1220000000
0!
0%
#1225000000
1!
1%
b001 )
b0001000 *
#1230000000
0!
0%
#1235000000
1!
1%
b010 )
b0001001 *
#1240000000
0!
0%
#1245000000
1!
1%
b011 )
b0001010 *
#1250000000
0!
0%
#1255000000
1!
0#
1%
0'
b100 )
b0001011 *
#1260000000
0!
0%
#1265000000
1!
1%
b101 )
b0001100 *
#1270000000
0!
0%
#1275000000
1!
1%
b110 )
b0001101 *
#1280000000
0!
0%
#1285000000
1!
1#
1%
1'
b000 )
b0001110 *
#1290000000
0!
0%
#1295000000
1!
1%
b001 )
b0001111 *
#1300000000
0!
0%
#1305000000
1!
1%
b010 )
b0010000 *
#1310000000
0!
0%
#1315000000
1!
1%
b011 )
b0010001 *
#1320000000
0!
0%
#1325000000
1!
0#
1%
0'
b100 )
b0010010 *
#1330000000
0!
0%
#1335000000
1!
1%
b101 )
b0010011 *
#1340000000
0!
0%
#1345000000
1!
1%
b110 )
b0010100 *
#1350000000
0!
0%
#1355000000
1!
1#
1%
1'
b000 )
b0010101 *
#1360000000
0!
0%
#1365000000
1!
1%
b001 )
b0010110 *
#1370000000
0!
0%
#1375000000
1!
1%
b010 )
b0010111 *
#1380000000
0!
0%
#1385000000
1!
1%
b011 )
b0011000 *
#1390000000
0!
0%
#1395000000
1!
0#
1%
0'
b100 )
b0011001 *
#1400000000
0!
0%
#1405000000
1!
1%
b101 )
b0011010 *
#1410000000
0!
0%
#1415000000
1!
1%
b110 )
b0011011 *
#1420000000
0!
0%
#1425000000
1!
1#
1%
1'
b000 )
b0011100 *
#1430000000
0!
0%
#1435000000
1!
1%
b001 )
b0011101 *
#1440000000
0!
0%
#1445000000
1!
1%
b010 )
b0011110 *
#1450000000
0!
0%
#1455000000
1!
1%
b011 )
b0011111 *
#1460000000
0!
0%
#1465000000
1!
0#
1%
0'
b100 )
b0100000 *
#1470000000
0!
0%
#1475000000
1!
1%
b101 )
b0100001 *
#1480000000
0!
0%
#1485000000
1!
1%
b110 )
b0100010 *
#1490000000
0!
0%
#1495000000
1!
1#
1%
1'
b000 )
b0100011 *
#1500000000
0!
0%
#1505000000
1!
1%
b001 )
b0100100 *
#1510000000
0!
0%
#1515000000
1!
1%
b010 )
b0100101 *
#1520000000
0!
0%
#1525000000
1!
1%
b011 )
b0100110 *
#1530000000
0!
0%
#1535000000
1!
0#
1%
0'
b100 )
b0100111 *
#1540000000
0!
0%
#1545000000
1!
1%
b101 )
b0101000 *
#1550000000
0!
0%
#1555000000
1!
1%
b110 )
b0101001 *
#1560000000
0!
0%
#1565000000
1!
1#
1%
1'
b000 )
b0101010 *
#1570000000
0!
0%
#1575000000
1!
1%
b001 )
b0101011 *
#1580000000
0!
0%
#1585000000
1!
1%
b010 )
b0101100 *
#1590000000
0!
0%
#1595000000
1!
1%
b011 )
b0101101 *
#1600000000
0!
0%
#1605000000
1!
0#
1%
0'
b100 )
b0101110 *
#1610000000
0!
0%
#1615000000
1!
1%
b101 )
b0101111 *
#1620000000
0!
0%
#1625000000
1!
1%
b110 )
b0110000 *
#1630000000
0!
0%
#1635000000
1!
1#
1%
1'
b000 )
b0110001 *
#1640000000
0!
0%
#1645000000
1!
1%
b001 )
b0110010 *
#1650000000
0!
0%
#1655000000
1!
1%
b010 )
b0110011 *
#1660000000
0!
0%
#1665000000
1!
1%
b011 )
b0110100 *
#1670000000
0!
0%
#1675000000
1!
0#
1%
0'
b100 )
b0110101 *
#1680000000
0!
0%
#1685000000
1!
1%
b101 )
b0110110 *
#1690000000
0!
0%
#1695000000
1!
1%
b110 )
b0110111 *
#1700000000
0!
0%
#1705000000
1!
1#
1%
1'
b000 )
b0111000 *
#1710000000
0!
0%
#1715000000
1!
1%
b001 )
b0111001 *
#1720000000
0!
0%
#1725000000
1!
1%
b010 )
b0111010 *
#1730000000
0!
0%
#1735000000
1!
1%
b011 )
b0111011 *
#1740000000
0!
0%
#1745000000
1!
0#
1%
0'
b100 )
b0111100 *
#1750000000
0!
0%
#1755000000
1!
1%
b101 )
b0111101 *
#1760000000
0!
0%
#1765000000
1!
1%
b110 )
b0111110 *
#1770000000
0!
0%
#1775000000
1!
1#
1%
1'
b000 )
b0111111 *
#1780000000
0!
0%
#1785000000
1!
1%
b001 )
b1000000 *
#1790000000
0!
0%
#1795000000
1!
1%
b010 )
b1000001 *
#1800000000
0!
0%
#1805000000
1!
1%
b011 )
b1000010 *
#1810000000
0!
0%
#1815000000
1!
0#
1%
0'
b100 )
b1000011 *
#1820000000
0!
0%
#1825000000
1!
1%
b101 )
b1000100 *
#1830000000
0!
0%
#1835000000
1!
1%
b110 )
b1000101 *
#1840000000
0!
0%
#1845000000
1!
1#
1%
1'
b000 )
b1000110 *
#1850000000
0!
0%
#1855000000
1!
1%
b001 )
b1000111 *
#1860000000
0!
0%
#1865000000
1!
1%
b010 )
b1001000 *
#1870000000
0!
0%
#1875000000
1!
1%
b011 )
b1001001 *
#1880000000
0!
0%
#1885000000
1!
0#
1%
0'
b100 )
b1001010 *
#1890000000
0!
0%
#1895000000
1!
1%
b101 )
b1001011 *
#1900000000
0!
0%
#1905000000
1!
1%
b110 )
b1001100 *
#1910000000
0!
0%
#1915000000
1!
1#
1%
1'
b000 )
b1001101 *
#1920000000
0!
0%
#1925000000
1!
1%
b001 )
b1001110 *
#1930000000
0!
0%
#1935000000
1!
1%
b010 )
b1001111 *
#1940000000
0!
0%
#1945000000
1!
1%
b011 )
b1010000 *
#1950000000
0!
0%
#1955000000
1!
0#
1%
0'
b100 )
b1010001 *
#1960000000
0!
0%
#1965000000
1!
1%
b101 )
b1010010 *
#1970000000
0!
0%
#1975000000
1!
1%
b110 )
b1010011 *
#1980000000
0!
0%
#1985000000
1!
1#
1%
1'
b000 )
b1010100 *
#1990000000
0!
0%
#1995000000
1!
1%
b001 )
b1010101 *
#2000000000
0!
0%
#2005000000
1!
1%
b010 )
b1010110 *
#2010000000
0!
0%
#2015000000
1!
1%
b011 )
b1010111 *
#2020000000
0!
0%
#2025000000
1!
0#
1%
0'
b100 )
b1011000 *
#2030000000
0!
0%
#2035000000
1!
1%
b101 )
b1011001 *
#2040000000
0!
0%
#2045000000
1!
1%
b110 )
b1011010 *
#2050000000
0!
0%
#2055000000
1!
1#
1%
1'
b000 )
b1011011 *
#2060000000
0!
0%
#2065000000
1!
1%
b001 )
b1011100 *
#2070000000
0!
0%
#2075000000
1!
1%
b010 )
b1011101 *
#2080000000
0!
0%
#2085000000
1!
1%
b011 )
b1011110 *
#2090000000
0!
0%
#2095000000
1!
0#
1%
0'
b100 )
b1011111 *
#2100000000
0!
0%
#2105000000
1!
1%
b101 )
b1100000 *
#2110000000
0!
0%
#2115000000
1!
1%
b110 )
b1100001 *
#2120000000
0!
0%
#2125000000
1!
1#
1%
1'
b000 )
b1100010 *
#2130000000
0!
0%
#2135000000
1!
1%
b001 )
b1100011 *
#2140000000
0!
0%
#2145000000
1!
1%
b010 )
b1100100 *
#2150000000
0!
0%
#2155000000
1!
1%
b011 )
b1100101 *
#2160000000
0!
0%
#2165000000
1!
0#
1%
0'
b100 )
b1100110 *
#2170000000
0!
0%
#2175000000
1!
1%
b101 )
b1100111 *
#2180000000
0!
0%
#2185000000
1!
1%
b110 )
b1101000 *
#2190000000
0!
0%
#2195000000
1!
1#
1$
1%
1'
1(
b000 )
b0000000 *
1+
#2200000000
0!
0%
#2205000000
1!
1%
b001 )
b0000001 *
#2210000000
0!
0%
#2215000000
1!
1%
b010 )
b0000010 *
#2220000000
0!
0%
#2225000000
1!
1%
b011 )
b0000011 *
#2230000000
0!
0%
#2235000000
1!
0#
1%
0'
b100 )
b0000100 *
#2240000000
0!
0%
#2245000000
1!
1%
b101 )
b0000101 *
#2250000000
0!
0%
#2255000000
1!
1%
b110 )
b0000110 *
#2260000000
0!
0%
#2265000000
1!
1#
1%
1'
b000 )
b0000111 *
#2270000000
0!
0%
#2275000000
1!
1%
b001 )
b0001000 *
#2280000000
0!
0%
#2285000000
1!
1%
b010 )
b0001001 *
#2290000000
0!
0%
#2295000000
1!
1%
b011 )
b0001010 *
#2300000000
0!
0%
#2305000000
1!
0#
1%
0'
b100 )
b0001011 *
#2310000000
0!
0%
#2315000000
1!
1%
b101 )
b0001100 *
#2320000000
0!
0%
#2325000000
1!
1%
b110 )
b0001101 *
#2330000000
0!
0%
#2335000000
1!
1#
1%
1'
b000 )
b0001110 *
#2340000000
0!
0%
#2345000000
1!
1%
b001 )
b0001111 *
#2350000000
0!
0%
#2355000000
1!
1%
b010 )
b0010000 *
#2360000000
0!
0%
#2365000000
1!
1%
b011 )
b0010001 *
#2370000000
0!
0%
#2375000000
1!
0#
1%
0'
b100 )
b0010010 *
#2380000000
0!
0%
#2385000000
1!
1%
b101 )
b0010011 *
#2390000000
0!
0%
#2395000000
1!
1%
b110 )
b0010100 *
#2400000000
0!
0%
#2405000000
1!
1#
1%
1'
b000 )
b0010101 *
#2410000000
0!
0%
#2415000000
1!
1%
b001 )
b0010110 *
#2420000000
0!
0%
#2425000000
1!
1%
b010 )
b0010111 *
#2430000000
0!
0%
#2435000000
1!
1%
b011 )
b0011000 *
#2440000000
0!
0%
#2445000000
1!
0#
1%
0'
b100 )
b0011001 *
#2450000000
0!
0%
#2455000000
1!
1%
b101 )
b0011010 *
#2460000000
0!
0%
#2465000000
1!
1%
b110 )
b0011011 *
#2470000000
0!
0%
#2475000000
1!
1#
1%
1'
b000 )
b0011100 *
#2480000000
0!
0%
#2485000000
1!
1%
b001 )
b0011101 *
#2490000000
0!
0%
#2495000000
1!
1%
b010 )
b0011110 *
#2500000000
0!
0%
#2505000000
1!
1%
b011 )
b0011111 *
#2510000000
0!
0%
#2515000000
1!
0#
1%
0'
b100 )
b0100000 *
#2520000000
0!
0%
#2525000000
1!
1%
b101 )
b0100001 *
#2530000000
0!
0%
#2535000000
1!
1%
b110 )
b0100010 *
#2540000000
0!
0%
#2545000000
1!
1#
1%
1'
b000 )
b0100011 *
#2550000000
0!
0%
#2555000000
1!
1%
b001 )
b0100100 *
#2560000000
0!
0%
#2565000000
1!
1%
b010 )
b0100101 *
#2570000000
0!
0%
#2575000000
1!
1%
b011 )
b0100110 *
#2580000000
0!
0%
#2585000000
1!
0#
1%
0'
b100 )
b0100111 *
#2590000000
0!
0%
#2595000000
1!
1%
b101 )
b0101000 *
#2600000000
0!
0%
#2605000000
1!
1%
b110 )
b0101001 *
#2610000000
0!
0%
#2615000000
1!
1#
1%
1'
b000 )
b0101010 *
#2620000000
0!
0%
#2625000000
1!
1%
b001 )
b0101011 *
#2630000000
0!
0%
#2635000000
1!
1%
b010 )
b0101100 *
#2640000000
0!
0%
#2645000000
1!
1%
b011 )
b0101101 *
#2650000000
0!
0%
#2655000000
1!
0#
1%
0'
b100 )
b0101110 *
#2660000000
0!
0%
#2665000000
1!
1%
b101 )
b0101111 *
#2670000000
0!
0%
#2675000000
1!
1%
b110 )
b0110000 *
#2680000000
0!
0%
#2685000000
1!
1#
1%
1'
b000 )
b0110001 *
#2690000000
0!
0%
#2695000000
1!
1%
b001 )
b0110010 *
#2700000000
0!
0%
#2705000000
1!
1%
b010 )
b0110011 *
#2710000000
0!
0%
#2715000000
1!
1%
b011 )
b0110100 *
#2720000000
0!
0%
#2725000000
1!
0#
1%
0'
b100 )
b0110101 *
#2730000000
0!
0%
#2735000000
1!
1%
b101 )
b0110110 *
#2740000000
0!
0%
#2745000000
1!
1%
b110 )
b0110111 *
#2750000000
0!
0%
#2755000000
1!
1#
1%
1'
b000 )
b0111000 *
#2760000000
0!
0%
#2765000000
1!
1%
b001 )
b0111001 *
#2770000000
0!
0%
#2775000000
1!
1%
b010 )
b0111010 *
#2780000000
0!
0%
#2785000000
1!
1%
b011 )
b0111011 *
#2790000000
0!
0%
#2795000000
1!
0#
1%
0'
b100 )
b0111100 *
#2800000000
0!
0%
#2805000000
1!
1%
b101 )
b0111101 *
#2810000000
0!
0%
#2815000000
1!
1%
b110 )
b0111110 *
#2820000000
0!
0%
#2825000000
1!
1#
1%
1'
b000 )
b0111111 *
#2830000000
0!
0%
#2835000000
1!
1%
b001 )
b1000000 *
#2840000000
0!
0%
#2845000000
1!
1%
b010 )
b1000001 *
#2850000000
0!
0%
#2855000000
1!
1%
b011 )
b1000010 *
#2860000000
0!
0%
#2865000000
1!
0#
1%
0'
b100 )
b1000011 *
#2870000000
0!
0%
#2875000000
1!
1%
b101 )
b1000100 *
#2880000000
0!
0%
#2885000000
1!
1%
b110 )
b1000101 *
#2890000000
0!
0%
#2895000000
1!
1#
1%
1'
b000 )
b1000110 *
#2900000000
0!
0%
#2905000000
1!
1%
b001 )
b1000111 *
#2910000000
0!
0%
#2915000000
1!
1%
b010 )
b1001000 *
#2920000000
0!
0%
#2925000000
1!
1%
b011 )
b1001001 *
#2930000000
0!
0%
#2935000000
1!
0#
1%
0'
b100 )
b1001010 *
#2940000000
0!
0%
#2945000000
1!
1%
b101 )
b1001011 *
#2950000000
0!
0%
#2955000000
1!
1%
b110 )
b1001100 *
#2960000000
0!
0%
#2965000000
1!
1#
1%
1'
b000 )
b1001101 *
#2970000000
0!
0%
#2975000000
1!
1%
b001 )
b1001110 *
#2980000000
0!
0%
#2985000000
1!
1%
b010 )
b1001111 *
#2990000000
0!
0%
#2995000000
1!
1%
b011 )
b1010000 *
#3000000000
0!
0%
#3005000000
1!
0#
1%
0'
b100 )
b1010001 *
#3010000000
0!
0%
#3015000000
1!
1%
b101 )
b1010010 *
#3020000000
0!
0%
#3025000000
1!
1%
b110 )
b1010011 *
#3030000000
0!
0%
#3035000000
1!
1#
1%
1'
b000 )
b1010100 *
#3040000000
0!
0%
#3045000000
1!
1%
b001 )
b1010101 *
#3050000000
0!
0%
#3055000000
1!
1%
b010 )
b1010110 *
#3060000000
0!
0%
#3065000000
1!
1%
b011 )
b1010111 *
#3070000000
0!
0%
#3075000000
1!
0#
1%
0'
b100 )
b1011000 *
#3080000000
0!
0%
#3085000000
1!
1%
b101 )
b1011001 *
#3090000000
0!
0%
#3095000000
1!
1%
b110 )
b1011010 *
#3100000000
0!
0%
#3105000000
1!
1#
1%
1'
b000 )
b1011011 *
#3110000000
0!
0%
#3115000000
1!
1%
b001 )
b1011100 *
#3120000000
0!
0%
#3125000000
1!
1%
b010 )
b1011101 *
#3130000000
0!
0%
#3135000000
1!
1%
b011 )
b1011110 *
#3140000000
0!
0%
#3145000000
1!
0#
1%
0'
b100 )
b1011111 *
#3150000000
0!
0%
#3155000000
1!
1%
b101 )
b1100000 *
#3160000000
0!
0%
#3165000000
1!
1%
b110 )
b1100001 *
#3170000000
0!
0%
#3175000000
1!
1#
1%
1'
b000 )
b1100010 *
#3180000000
0!
0%
#3185000000
1!
1%
b001 )
b1100011 *
#3190000000
0!
0%
#3195000000
1!
1%
b010 )
b1100100 *
#3200000000
0!
0%
#3205000000
1!
1%
b011 )
b1100101 *
#3210000000
0!
0%
#3215000000
1!
0#
1%
0'
b100 )
b1100110 *
#3220000000
0!
0%
#3225000000
1!
1%
b101 )
b1100111 *
#3230000000
0!
0%
#3235000000
1!
1%
b110 )
b1101000 *
#3240000000
0!
0%
#3245000000
1!
1#
0$
1%
1'
0(
b000 )
b0000000 *
0+
#3250000000
0!
0%
#3255000000
1!
1%
b001 )
b0000001 *
#3260000000
0!
0%
#3265000000
1!
1%
b010 )
b0000010 *
#3270000000
0!
0%
#3275000000
1!
1%
b011 )
b0000011 *
#3280000000
0!
0%
#3285000000
1!
0#
1%
0'
b100 )
b0000100 *
#3290000000
0!
0%
#3295000000
1!
1%
b101 )
b0000101 *
#3300000000
0!
0%
#3305000000
1!
1%
b110 )
b0000110 *
#3310000000
0!
0%
#3315000000
1!
1#
1%
1'
b000 )
b0000111 *
#3320000000
0!
0%
#3325000000
1!
1%
b001 )
b0001000 *
#3330000000
0!
0%
#3335000000
1!
1%
b010 )
b0001001 *
#3340000000
0!
0%
#3345000000
1!
1%
b011 )
b0001010 *
#3350000000
0!
0%
#3355000000
1!
0#
1%
0'
b100 )
b0001011 *
#3360000000
0!
0%
#3365000000
1!
1%
b101 )
b0001100 *
#3370000000
0!
0%
#3375000000
1!
1%
b110 )
b0001101 *
#3380000000
0!
0%
#3385000000
1!
1#
1%
1'
b000 )
b0001110 *
#3390000000
0!
0%
#3395000000
1!
1%
b001 )
b0001111 *
#3400000000
0!
0%
#3405000000
1!
1%
b010 )
b0010000 *
#3410000000
0!
0%
#3415000000
1!
1%
b011 )
b0010001 *
#3420000000
0!
0%
#3425000000
1!
0#
1%
0'
b100 )
b0010010 *
#3430000000
0!
0%
#3435000000
1!
1%
b101 )
b0010011 *
#3440000000
0!
0%
#3445000000
1!
1%
b110 )
b0010100 *
#3450000000
0!
0%
#3455000000
1!
1#
1%
1'
b000 )
b0010101 *
#3460000000
0!
0%
#3465000000
1!
1%
b001 )
b0010110 *
#3470000000
0!
0%
#3475000000
1!
1%
b010 )
b0010111 *
#3480000000
0!
0%
#3485000000
1!
1%
b011 )
b0011000 *
#3490000000
0!
0%
#3495000000
1!
0#
1%
0'
b100 )
b0011001 *
#3500000000
0!
0%
#3505000000
1!
1%
b101 )
b0011010 *
#3510000000
0!
0%
#3515000000
1!
1%
b110 )
b0011011 *
#3520000000
0!
0%
#3525000000
1!
1#
1%
1'
b000 )
b0011100 *
#3530000000
0!
0%
#3535000000
1!
1%
b001 )
b0011101 *
#3540000000
0!
0%
#3545000000
1!
1%
b010 )
b0011110 *
#3550000000
0!
0%
#3555000000
1!
1%
b011 )
b0011111 *
#3560000000
0!
0%
#3565000000
1!
0#
1%
0'
b100 )
b0100000 *
#3570000000
0!
0%
#3575000000
1!
1%
b101 )
b0100001 *
#3580000000
0!
0%
#3585000000
1!
1%
b110 )
b0100010 *
#3590000000
0!
0%
#3595000000
1!
1#
1%
1'
b000 )
b0100011 *
#3600000000
0!
0%
#3605000000
1!
1%
b001 )
b0100100 *
#3610000000
0!
0%
#3615000000
1!
1%
b010 )
b0100101 *
#3620000000
0!
0%
#3625000000
1!
1%
b011 )
b0100110 *
#3630000000
0!
0%
#3635000000
1!
0#
1%
0'
b100 )
b0100111 *
#3640000000
0!
0%
#3645000000
1!
1%
b101 )
b0101000 *
#3650000000
0!
0%
#3655000000
1!
1%
b110 )
b0101001 *
#3660000000
0!
0%
#3665000000
1!
1#
1%
1'
b000 )
b0101010 *
#3670000000
0!
0%
#3675000000
1!
1%
b001 )
b0101011 *
#3680000000
0!
0%
#3685000000
1!
1%
b010 )
b0101100 *
#3690000000
0!
0%
#3695000000
1!
1%
b011 )
b0101101 *
#3700000000
0!
0%
#3705000000
1!
0#
1%
0'
b100 )
b0101110 *
#3710000000
0!
0%
#3715000000
1!
1%
b101 )
b0101111 *
#3720000000
0!
0%
#3725000000
1!
1%
b110 )
b0110000 *
#3730000000
0!
0%
#3735000000
1!
1#
1%
1'
b000 )
b0110001 *
#3740000000
0!
0%
#3745000000
1!
1%
b001 )
b0110010 *
#3750000000
0!
0%
#3755000000
1!
1%
b010 )
b0110011 *
#3760000000
0!
0%
#3765000000
1!
1%
b011 )
b0110100 *
#3770000000
0!
0%
#3775000000
1!
0#
1%
0'
b100 )
b0110101 *
#3780000000
0!
0%
#3785000000
1!
1%
b101 )
b0110110 *
#3790000000
0!
0%
#3795000000
1!
1%
b110 )
b0110111 *
#3800000000
0!
0%
#3805000000
1!
1#
1%
1'
b000 )
b0111000 *
#3810000000
0!
0%
#3815000000
1!
1%
b001 )
b0111001 *
#3820000000
0!
0%
#3825000000
1!
1%
b010 )
b0111010 *
#3830000000
0!
0%
#3835000000
1!
1%
b011 )
b0111011 *
#3840000000
0!
0%
#3845000000
1!
0#
1%
0'
b100 )
b0111100 *
#3850000000
0!
0%
#3855000000
1!
1%
b101 )
b0111101 *
#3860000000
0!
0%
#3865000000
1!
1%
b110 )
b0111110 *
#3870000000
0!
0%
#3875000000
1!
1#
1%
1'
b000 )
b0111111 *
#3880000000
0!
0%
#3885000000
1!
1%
b001 )
b1000000 *
#3890000000
0!
0%
#3895000000
1!
1%
b010 )
b1000001 *
#3900000000
0!
0%
#3905000000
1!
1%
b011 )
b1000010 *
#3910000000
0!
0%
#3915000000
1!
0#
1%
0'
b100 )
b1000011 *
#3920000000
0!
0%
#3925000000
1!
1%
b101 )
b1000100 *
#3930000000
0!
0%
#3935000000
1!
1%
b110 )
b1000101 *
#3940000000
0!
0%
#3945000000
1!
1#
1%
1'
b000 )
b1000110 *
#3950000000
0!
0%
#3955000000
1!
1%
b001 )
b1000111 *
#3960000000
0!
0%
#3965000000
1!
1%
b010 )
b1001000 *
#3970000000
0!
0%
#3975000000
1!
1%
b011 )
b1001001 *
